[
  {
    "id": 1,
    "feature": "Login",
    "module": "Authentication",
    "skill": "UX",
    "platform": "Mobile",
    "domain": ["Retail", "Telecom"],
    "complexity": "M"
  },
  {
    "id": 1,
    "feature": "Login",
    "module": "Authentication",
    "skill": "VD",
    "platform": "Mobile",
    "domain": ["Retail", "Telecom"],
    "complexity": "M"
  },
  {
    "id": 1,
    "feature": "Login",
    "module": "Authentication",
    "skill": "iOS",
    "platform": "Mobile",
    "domain": ["Retail", "Telecom"],
    "complexity": "S"
  },
  {
    "id": 1,
    "feature": "Login",
    "module": "Authentication",
    "skill": "Android",
    "platform": "Mobile",
    "domain": ["Retail", "Telecom"],
    "complexity": "S"
  },
  {
    "id": 1,
    "feature": "Login",
    "module": "Authentication",
    "skill": "BE",
    "platform": "Mobile",
    "domain": ["Retail", "Telecom"],
    "complexity": ""
  },
  {
    "id": 1,
    "feature": "Login",
    "module": "Authentication",
    "skill": "QA",
    "platform": "Mobile",
    "domain": ["Retail", "Telecom"],
    "complexity": "M"
  },
  {
    "id": 2,
    "feature": "Logout",
    "module": "Authentication",
    "skill": "UX",
    "platform": "Mobile",
    "domain": ["Retail", "Telecom"],
    "complexity": "M"
  },
  {
    "id": 2,
    "feature": "Logout",
    "module": "Authentication",
    "skill": "VD",
    "platform": "Mobile",
    "domain": ["Retail", "Telecom"],
    "complexity": "M"
  },
  {
    "id": 2,
    "feature": "Logout",
    "module": "Authentication",
    "skill": "iOS",
    "platform": "Mobile",
    "domain": ["Retail", "Telecom"],
    "complexity": "S"
  },
  {
    "id": 2,
    "feature": "Logout",
    "module": "Authentication",
    "skill": "Android",
    "platform": "Mobile",
    "domain": ["Retail", "Telecom"],
    "complexity": "S"
  },
  {
    "id": 2,
    "feature": "Logout",
    "module": "Authentication",
    "skill": "BE",
    "platform": "Mobile",
    "domain": ["Retail", "Telecom"],
    "complexity": ""
  },
  {
    "id": 2,
    "feature": "Logout",
    "module": "Authentication",
    "skill": "QA",
    "platform": "Mobile",
    "domain": ["Retail", "Telecom"],
    "complexity": "M"
  },
  {
    "id": 3,
    "feature": "Forgot Password",
    "module": "Authentication",
    "skill": "UX",
    "platform": "Mobile",
    "domain": ["Retail", "Telecom"],
    "complexity": "S"
  },
  {
    "id": 3,
    "feature": "Forgot Password",
    "module": "Authentication",
    "skill": "VD",
    "platform": "Mobile",
    "domain": ["Retail", "Telecom"],
    "complexity": "S"
  },
  {
    "id": 3,
    "feature": "Forgot Password",
    "module": "Authentication",
    "skill": "iOS",
    "platform": "Mobile",
    "domain": ["Retail", "Telecom"],
    "complexity": "S"
  },
  {
    "id": 3,
    "feature": "Forgot Password",
    "module": "Authentication",
    "skill": "Android",
    "platform": "Mobile",
    "domain": ["Retail", "Telecom"],
    "complexity": "S"
  },
  {
    "id": 3,
    "feature": "Forgot Password",
    "module": "Authentication",
    "skill": "BE",
    "platform": "Mobile",
    "domain": ["Retail", "Telecom"],
    "complexity": ""
  },
  {
    "id": 3,
    "feature": "Forgot Password",
    "module": "Authentication",
    "skill": "QA",
    "platform": "Mobile",
    "domain": ["Retail", "Telecom"],
    "complexity": "S"
  },
  {
    "id": 4,
    "feature": "Register",
    "module": "Authentication",
    "skill": "UX",
    "platform": "Mobile",
    "domain": ["Retail", "Telecom"],
    "complexity": "M"
  },
  {
    "id": 4,
    "feature": "Register",
    "module": "Authentication",
    "skill": "VD",
    "platform": "Mobile",
    "domain": ["Retail", "Telecom"],
    "complexity": "L"
  },
  {
    "id": 4,
    "feature": "Register",
    "module": "Authentication",
    "skill": "iOS",
    "platform": "Mobile",
    "domain": ["Retail", "Telecom"],
    "complexity": "M"
  },
  {
    "id": 4,
    "feature": "Register",
    "module": "Authentication",
    "skill": "Android",
    "platform": "Mobile",
    "domain": ["Retail", "Telecom"],
    "complexity": "M"
  },
  {
    "id": 4,
    "feature": "Register",
    "module": "Authentication",
    "skill": "BE",
    "platform": "Mobile",
    "domain": ["Retail", "Telecom"],
    "complexity": ""
  },
  {
    "id": 4,
    "feature": "Register",
    "module": "Authentication",
    "skill": "QA",
    "platform": "Mobile",
    "domain": ["Retail", "Telecom"],
    "complexity": "L"
  },
  {
    "id": 5,
    "feature": "Profile - View, Update",
    "module": "My Profile",
    "skill": "UX",
    "platform": "Mobile",
    "domain": ["Retail", "Telecom"],
    "complexity": "L"
  },
  {
    "id": 5,
    "feature": "Profile - View, Update",
    "module": "My Profile",
    "skill": "VD",
    "platform": "Mobile",
    "domain": ["Retail", "Telecom"],
    "complexity": "M"
  },
  {
    "id": 5,
    "feature": "Profile - View, Update",
    "module": "My Profile",
    "skill": "FE",
    "platform": "Mobile",
    "domain": ["Retail", "Telecom"],
    "complexity": ""
  },
  {
    "id": 5,
    "feature": "Profile - View, Update",
    "module": "My Profile",
    "skill": "iOS",
    "platform": "Mobile",
    "domain": ["Retail", "Telecom"],
    "complexity": ""
  },
  {
    "id": 5,
    "feature": "Profile - View, Update",
    "module": "My Profile",
    "skill": "Android",
    "platform": "Mobile",
    "domain": ["Retail", "Telecom"],
    "complexity": ""
  },
  {
    "id": 5,
    "feature": "Profile - View, Update",
    "module": "My Profile",
    "skill": "BE",
    "platform": "Mobile",
    "domain": ["Retail", "Telecom"],
    "complexity": ""
  },
  {
    "id": 5,
    "feature": "Profile - View, Update",
    "module": "My Profile",
    "skill": "QA",
    "platform": "Mobile",
    "domain": ["Retail", "Telecom"],
    "complexity": ""
  },
  {
    "id": 6,
    "feature": "Update Login Credentials",
    "module": "My Profile",
    "skill": "UX",
    "platform": "Mobile",
    "domain": ["Retail", "Telecom"],
    "complexity": "S"
  },
  {
    "id": 6,
    "feature": "Update Login Credentials",
    "module": "My Profile",
    "skill": "VD",
    "platform": "Mobile",
    "domain": ["Retail", "Telecom"],
    "complexity": "S"
  },
  {
    "id": 6,
    "feature": "Update Login Credentials",
    "module": "My Profile",
    "skill": "FE",
    "platform": "Mobile",
    "domain": ["Retail", "Telecom"],
    "complexity": ""
  },
  {
    "id": 6,
    "feature": "Update Login Credentials",
    "module": "My Profile",
    "skill": "iOS",
    "platform": "Mobile",
    "domain": ["Retail", "Telecom"],
    "complexity": ""
  },
  {
    "id": 6,
    "feature": "Update Login Credentials",
    "module": "My Profile",
    "skill": "Android",
    "platform": "Mobile",
    "domain": ["Retail", "Telecom"],
    "complexity": ""
  },
  {
    "id": 6,
    "feature": "Update Login Credentials",
    "module": "My Profile",
    "skill": "BE",
    "platform": "Mobile",
    "domain": ["Retail", "Telecom"],
    "complexity": ""
  },
  {
    "id": 6,
    "feature": "Update Login Credentials",
    "module": "My Profile",
    "skill": "QA",
    "platform": "Mobile",
    "domain": ["Retail", "Telecom"],
    "complexity": ""
  },
  {
    "id": 7,
    "feature": "Change Password",
    "module": "My Profile",
    "skill": "UX",
    "platform": "Mobile",
    "domain": ["Retail", "Telecom"],
    "complexity": "S"
  },
  {
    "id": 7,
    "feature": "Change Password",
    "module": "My Profile",
    "skill": "VD",
    "platform": "Mobile",
    "domain": ["Retail", "Telecom"],
    "complexity": "S"
  },
  {
    "id": 7,
    "feature": "Change Password",
    "module": "My Profile",
    "skill": "FE",
    "platform": "Mobile",
    "domain": ["Retail", "Telecom"],
    "complexity": ""
  },
  {
    "id": 7,
    "feature": "Change Password",
    "module": "My Profile",
    "skill": "iOS",
    "platform": "Mobile",
    "domain": ["Retail", "Telecom"],
    "complexity": ""
  },
  {
    "id": 7,
    "feature": "Change Password",
    "module": "My Profile",
    "skill": "Android",
    "platform": "Mobile",
    "domain": ["Retail", "Telecom"],
    "complexity": ""
  },
  {
    "id": 7,
    "feature": "Change Password",
    "module": "My Profile",
    "skill": "BE",
    "platform": "Mobile",
    "domain": ["Retail", "Telecom"],
    "complexity": ""
  },
  {
    "id": 7,
    "feature": "Change Password",
    "module": "My Profile",
    "skill": "QA",
    "platform": "Mobile",
    "domain": ["Retail", "Telecom"],
    "complexity": ""
  },
  {
    "id": 8,
    "feature": "Settings",
    "module": "My Profile",
    "skill": "UX",
    "platform": "Mobile",
    "domain": ["Retail", "Telecom"],
    "complexity": "L"
  },
  {
    "id": 8,
    "feature": "Settings",
    "module": "My Profile",
    "skill": "VD",
    "platform": "Mobile",
    "domain": ["Retail", "Telecom"],
    "complexity": "L"
  },
  {
    "id": 8,
    "feature": "Settings",
    "module": "My Profile",
    "skill": "FE",
    "platform": "Mobile",
    "domain": ["Retail", "Telecom"],
    "complexity": ""
  },
  {
    "id": 8,
    "feature": "Settings",
    "module": "My Profile",
    "skill": "iOS",
    "platform": "Mobile",
    "domain": ["Retail", "Telecom"],
    "complexity": ""
  },
  {
    "id": 8,
    "feature": "Settings",
    "module": "My Profile",
    "skill": "Android",
    "platform": "Mobile",
    "domain": ["Retail", "Telecom"],
    "complexity": ""
  },
  {
    "id": 8,
    "feature": "Settings",
    "module": "My Profile",
    "skill": "BE",
    "platform": "Mobile",
    "domain": ["Retail", "Telecom"],
    "complexity": ""
  },
  {
    "id": 8,
    "feature": "Settings",
    "module": "My Profile",
    "skill": "QA",
    "platform": "Mobile",
    "domain": ["Retail", "Telecom"],
    "complexity": ""
  },
  {
    "id": 9,
    "feature": "Navigations - Primary, Secondary, Footer",
    "module": "Navigation",
    "skill": "UX",
    "platform": "Web",
    "domain": ["Informational", "Retail"],
    "complexity": "L"
  },
  {
    "id": 9,
    "feature": "Navigations - Primary, Secondary, Footer",
    "module": "Navigation",
    "skill": "VD",
    "platform": "Web",
    "domain": ["Informational", "Retail"],
    "complexity": "M"
  },
  {
    "id": 9,
    "feature": "Navigations - Primary, Secondary, Footer",
    "module": "Navigation",
    "skill": "FE",
    "platform": "Web",
    "domain": ["Informational", "Retail"],
    "complexity": ""
  },
  {
    "id": 9,
    "feature": "Navigations - Primary, Secondary, Footer",
    "module": "Navigation",
    "skill": "iOS",
    "platform": "Web",
    "domain": ["Informational", "Retail"],
    "complexity": ""
  },
  {
    "id": 9,
    "feature": "Navigations - Primary, Secondary, Footer",
    "module": "Navigation",
    "skill": "Android",
    "platform": "Web",
    "domain": ["Informational", "Retail"],
    "complexity": ""
  },
  {
    "id": 9,
    "feature": "Navigations - Primary, Secondary, Footer",
    "module": "Navigation",
    "skill": "BE",
    "platform": "Web",
    "domain": ["Informational", "Retail"],
    "complexity": ""
  },
  {
    "id": 9,
    "feature": "Navigations - Primary, Secondary, Footer",
    "module": "Navigation",
    "skill": "QA",
    "platform": "Web",
    "domain": ["Informational", "Retail"],
    "complexity": ""
  },
  {
    "id": 10,
    "feature": "Language",
    "module": "Localization",
    "skill": "UX",
    "platform": "Web",
    "domain": ["Informational", "Retail"],
    "complexity": "S"
  },
  {
    "id": 10,
    "feature": "Language",
    "module": "Localization",
    "skill": "VD",
    "platform": "Web",
    "domain": ["Informational", "Retail"],
    "complexity": "S"
  },
  {
    "id": 10,
    "feature": "Language",
    "module": "Localization",
    "skill": "FE",
    "platform": "Web",
    "domain": ["Informational", "Retail"],
    "complexity": ""
  },
  {
    "id": 10,
    "feature": "Language",
    "module": "Localization",
    "skill": "iOS",
    "platform": "Web",
    "domain": ["Informational", "Retail"],
    "complexity": ""
  },
  {
    "id": 10,
    "feature": "Language",
    "module": "Localization",
    "skill": "Android",
    "platform": "Web",
    "domain": ["Informational", "Retail"],
    "complexity": ""
  },
  {
    "id": 10,
    "feature": "Language",
    "module": "Localization",
    "skill": "BE",
    "platform": "Web",
    "domain": ["Informational", "Retail"],
    "complexity": ""
  },
  {
    "id": 10,
    "feature": "Language",
    "module": "Localization",
    "skill": "QA",
    "platform": "Web",
    "domain": ["Informational", "Retail"],
    "complexity": ""
  },
  {
    "id": 11,
    "feature": "Search and Results",
    "module": "Search",
    "skill": "UX",
    "platform": "Web",
    "domain": ["Informational", "Retail"],
    "complexity": "L"
  },
  {
    "id": 11,
    "feature": "Search and Results",
    "module": "Search",
    "skill": "VD",
    "platform": "Web",
    "domain": ["Informational", "Retail"],
    "complexity": "M"
  },
  {
    "id": 11,
    "feature": "Search and Results",
    "module": "Search",
    "skill": "FE",
    "platform": "Web",
    "domain": ["Informational", "Retail"],
    "complexity": ""
  },
  {
    "id": 11,
    "feature": "Search and Results",
    "module": "Search",
    "skill": "iOS",
    "platform": "Web",
    "domain": ["Informational", "Retail"],
    "complexity": ""
  },
  {
    "id": 11,
    "feature": "Search and Results",
    "module": "Search",
    "skill": "Android",
    "platform": "Web",
    "domain": ["Informational", "Retail"],
    "complexity": ""
  },
  {
    "id": 11,
    "feature": "Search and Results",
    "module": "Search",
    "skill": "BE",
    "platform": "Web",
    "domain": ["Informational", "Retail"],
    "complexity": ""
  },
  {
    "id": 11,
    "feature": "Search and Results",
    "module": "Search",
    "skill": "QA",
    "platform": "Web",
    "domain": ["Informational", "Retail"],
    "complexity": ""
  },
  {
    "id": 12,
    "feature": "Home",
    "module": "Homepage",
    "skill": "UX",
    "platform": "Web",
    "domain": ["Informational", "Retail"],
    "complexity": "L"
  },
  {
    "id": 12,
    "feature": "Home",
    "module": "Homepage",
    "skill": "VD",
    "platform": "Web",
    "domain": ["Informational", "Retail"],
    "complexity": "L"
  },
  {
    "id": 12,
    "feature": "Home",
    "module": "Homepage",
    "skill": "FE",
    "platform": "Web",
    "domain": ["Informational", "Retail"],
    "complexity": ""
  },
  {
    "id": 12,
    "feature": "Home",
    "module": "Homepage",
    "skill": "iOS",
    "platform": "Web",
    "domain": ["Informational", "Retail"],
    "complexity": ""
  },
  {
    "id": 12,
    "feature": "Home",
    "module": "Homepage",
    "skill": "Android",
    "platform": "Web",
    "domain": ["Informational", "Retail"],
    "complexity": ""
  },
  {
    "id": 12,
    "feature": "Home",
    "module": "Homepage",
    "skill": "BE",
    "platform": "Web",
    "domain": ["Informational", "Retail"],
    "complexity": ""
  },
  {
    "id": 12,
    "feature": "Home",
    "module": "Homepage",
    "skill": "QA",
    "platform": "Web",
    "domain": ["Informational", "Retail"],
    "complexity": ""
  },
  {
    "id": 13,
    "feature": "Layouts",
    "module": "Template",
    "skill": "UX",
    "platform": "Web",
    "domain": ["Informational", "Retail"],
    "complexity": "M"
  },
  {
    "id": 13,
    "feature": "Layouts",
    "module": "Template",
    "skill": "VD",
    "platform": "Web",
    "domain": ["Informational", "Retail"],
    "complexity": "M"
  },
  {
    "id": 13,
    "feature": "Layouts",
    "module": "Template",
    "skill": "FE",
    "platform": "Web",
    "domain": ["Informational", "Retail"],
    "complexity": ""
  },
  {
    "id": 13,
    "feature": "Layouts",
    "module": "Template",
    "skill": "iOS",
    "platform": "Web",
    "domain": ["Informational", "Retail"],
    "complexity": ""
  },
  {
    "id": 13,
    "feature": "Layouts",
    "module": "Template",
    "skill": "Android",
    "platform": "Web",
    "domain": ["Informational", "Retail"],
    "complexity": ""
  },
  {
    "id": 13,
    "feature": "Layouts",
    "module": "Template",
    "skill": "BE",
    "platform": "Web",
    "domain": ["Informational", "Retail"],
    "complexity": ""
  },
  {
    "id": 13,
    "feature": "Layouts",
    "module": "Template",
    "skill": "QA",
    "platform": "Web",
    "domain": ["Informational", "Retail"],
    "complexity": ""
  },
  {
    "id": 14,
    "feature": "Blog home page",
    "module": "Blog & Community",
    "skill": "UX",
    "platform": "Web",
    "domain": ["Informational", "Retail"],
    "complexity": "M"
  },
  {
    "id": 14,
    "feature": "Blog home page",
    "module": "Blog & Community",
    "skill": "VD",
    "platform": "Web",
    "domain": ["Informational", "Retail"],
    "complexity": "S"
  },
  {
    "id": 14,
    "feature": "Blog home page",
    "module": "Blog & Community",
    "skill": "FE",
    "platform": "Web",
    "domain": ["Informational", "Retail"],
    "complexity": ""
  },
  {
    "id": 14,
    "feature": "Blog home page",
    "module": "Blog & Community",
    "skill": "iOS",
    "platform": "Web",
    "domain": ["Informational", "Retail"],
    "complexity": ""
  },
  {
    "id": 14,
    "feature": "Blog home page",
    "module": "Blog & Community",
    "skill": "Android",
    "platform": "Web",
    "domain": ["Informational", "Retail"],
    "complexity": ""
  },
  {
    "id": 14,
    "feature": "Blog home page",
    "module": "Blog & Community",
    "skill": "BE",
    "platform": "Web",
    "domain": ["Informational", "Retail"],
    "complexity": ""
  },
  {
    "id": 14,
    "feature": "Blog home page",
    "module": "Blog & Community",
    "skill": "QA",
    "platform": "Web",
    "domain": ["Informational", "Retail"],
    "complexity": ""
  },
  {
    "id": 15,
    "feature": "Blog Search",
    "module": "Blog & Community",
    "skill": "UX",
    "platform": "Web",
    "domain": ["Informational", "Retail"],
    "complexity": "M"
  },
  {
    "id": 15,
    "feature": "Blog Search",
    "module": "Blog & Community",
    "skill": "VD",
    "platform": "Web",
    "domain": ["Informational", "Retail"],
    "complexity": "S"
  },
  {
    "id": 15,
    "feature": "Blog Search",
    "module": "Blog & Community",
    "skill": "FE",
    "platform": "Web",
    "domain": ["Informational", "Retail"],
    "complexity": ""
  },
  {
    "id": 15,
    "feature": "Blog Search",
    "module": "Blog & Community",
    "skill": "iOS",
    "platform": "Web",
    "domain": ["Informational", "Retail"],
    "complexity": ""
  },
  {
    "id": 15,
    "feature": "Blog Search",
    "module": "Blog & Community",
    "skill": "Android",
    "platform": "Web",
    "domain": ["Informational", "Retail"],
    "complexity": ""
  },
  {
    "id": 15,
    "feature": "Blog Search",
    "module": "Blog & Community",
    "skill": "BE",
    "platform": "Web",
    "domain": ["Informational", "Retail"],
    "complexity": ""
  },
  {
    "id": 15,
    "feature": "Blog Search",
    "module": "Blog & Community",
    "skill": "QA",
    "platform": "Web",
    "domain": ["Informational", "Retail"],
    "complexity": ""
  },
  {
    "id": 16,
    "feature": "Search Details",
    "module": "Search",
    "skill": "UX",
    "platform": "Mobile",
    "domain": ["Retail"],
    "complexity": "M"
  },
  {
    "id": 16,
    "feature": "Search Details",
    "module": "Search",
    "skill": "VD",
    "platform": "Mobile",
    "domain": ["Retail"],
    "complexity": "M"
  },
  {
    "id": 16,
    "feature": "Search Details",
    "module": "Search",
    "skill": "FE",
    "platform": "Mobile",
    "domain": ["Retail"],
    "complexity": ""
  },
  {
    "id": 16,
    "feature": "Search Details",
    "module": "Search",
    "skill": "iOS",
    "platform": "Mobile",
    "domain": ["Retail"],
    "complexity": ""
  },
  {
    "id": 16,
    "feature": "Search Details",
    "module": "Search",
    "skill": "Android",
    "platform": "Mobile",
    "domain": ["Retail"],
    "complexity": ""
  },
  {
    "id": 16,
    "feature": "Search Details",
    "module": "Search",
    "skill": "BE",
    "platform": "Mobile",
    "domain": ["Retail"],
    "complexity": ""
  },
  {
    "id": 16,
    "feature": "Search Details",
    "module": "Search",
    "skill": "QA",
    "platform": "Mobile",
    "domain": ["Retail"],
    "complexity": ""
  },
  {
    "id": 17,
    "feature": "Product Listing",
    "module": "PLP",
    "skill": "UX",
    "platform": "Mobile",
    "domain": ["Retail"],
    "complexity": "L"
  },
  {
    "id": 17,
    "feature": "Product Listing",
    "module": "PLP",
    "skill": "VD",
    "platform": "Mobile",
    "domain": ["Retail"],
    "complexity": "M"
  },
  {
    "id": 17,
    "feature": "Product Listing",
    "module": "PLP",
    "skill": "FE",
    "platform": "Mobile",
    "domain": ["Retail"],
    "complexity": ""
  },
  {
    "id": 17,
    "feature": "Product Listing",
    "module": "PLP",
    "skill": "iOS",
    "platform": "Mobile",
    "domain": ["Retail"],
    "complexity": ""
  },
  {
    "id": 17,
    "feature": "Product Listing",
    "module": "PLP",
    "skill": "Android",
    "platform": "Mobile",
    "domain": ["Retail"],
    "complexity": ""
  },
  {
    "id": 17,
    "feature": "Product Listing",
    "module": "PLP",
    "skill": "BE",
    "platform": "Mobile",
    "domain": ["Retail"],
    "complexity": ""
  },
  {
    "id": 17,
    "feature": "Product Listing",
    "module": "PLP",
    "skill": "QA",
    "platform": "Mobile",
    "domain": ["Retail"],
    "complexity": ""
  },
  {
    "id": 18,
    "feature": "Product Details",
    "module": "PDP",
    "skill": "UX",
    "platform": "Mobile",
    "domain": ["Retail"],
    "complexity": "L"
  },
  {
    "id": 18,
    "feature": "Product Details",
    "module": "PDP",
    "skill": "VD",
    "platform": "Mobile",
    "domain": ["Retail"],
    "complexity": "L"
  },
  {
    "id": 18,
    "feature": "Product Details",
    "module": "PDP",
    "skill": "FE",
    "platform": "Mobile",
    "domain": ["Retail"],
    "complexity": ""
  },
  {
    "id": 18,
    "feature": "Product Details",
    "module": "PDP",
    "skill": "iOS",
    "platform": "Mobile",
    "domain": ["Retail"],
    "complexity": ""
  },
  {
    "id": 18,
    "feature": "Product Details",
    "module": "PDP",
    "skill": "Android",
    "platform": "Mobile",
    "domain": ["Retail"],
    "complexity": ""
  },
  {
    "id": 18,
    "feature": "Product Details",
    "module": "PDP",
    "skill": "BE",
    "platform": "Mobile",
    "domain": ["Retail"],
    "complexity": ""
  },
  {
    "id": 18,
    "feature": "Product Details",
    "module": "PDP",
    "skill": "QA",
    "platform": "Mobile",
    "domain": ["Retail"],
    "complexity": ""
  },
  {
    "id": 19,
    "feature": "Checkout",
    "module": "Cart",
    "skill": "UX",
    "platform": "Mobile",
    "domain": ["Retail"],
    "complexity": "M"
  },
  {
    "id": 19,
    "feature": "Checkout",
    "module": "Cart",
    "skill": "VD",
    "platform": "Mobile",
    "domain": ["Retail"],
    "complexity": "L"
  },
  {
    "id": 19,
    "feature": "Checkout",
    "module": "Cart",
    "skill": "FE",
    "platform": "Mobile",
    "domain": ["Retail"],
    "complexity": ""
  },
  {
    "id": 19,
    "feature": "Checkout",
    "module": "Cart",
    "skill": "iOS",
    "platform": "Mobile",
    "domain": ["Retail"],
    "complexity": ""
  },
  {
    "id": 19,
    "feature": "Checkout",
    "module": "Cart",
    "skill": "Android",
    "platform": "Mobile",
    "domain": ["Retail"],
    "complexity": ""
  },
  {
    "id": 19,
    "feature": "Checkout",
    "module": "Cart",
    "skill": "BE",
    "platform": "Mobile",
    "domain": ["Retail"],
    "complexity": ""
  },
  {
    "id": 19,
    "feature": "Checkout",
    "module": "Cart",
    "skill": "QA",
    "platform": "Mobile",
    "domain": ["Retail"],
    "complexity": ""
  },
  {
    "id": 20,
    "feature": "About Us - Homepage",
    "module": "About Us",
    "skill": "UX",
    "platform": "Web",
    "domain": ["Informational"],
    "complexity": "M"
  },
  {
    "id": 20,
    "feature": "About Us - Homepage",
    "module": "About Us",
    "skill": "VD",
    "platform": "Web",
    "domain": ["Informational"],
    "complexity": "M"
  },
  {
    "id": 20,
    "feature": "About Us - Homepage",
    "module": "About Us",
    "skill": "FE",
    "platform": "Web",
    "domain": ["Informational"],
    "complexity": ""
  },
  {
    "id": 20,
    "feature": "About Us - Homepage",
    "module": "About Us",
    "skill": "iOS",
    "platform": "Web",
    "domain": ["Informational"],
    "complexity": ""
  },
  {
    "id": 20,
    "feature": "About Us - Homepage",
    "module": "About Us",
    "skill": "Android",
    "platform": "Web",
    "domain": ["Informational"],
    "complexity": ""
  },
  {
    "id": 20,
    "feature": "About Us - Homepage",
    "module": "About Us",
    "skill": "BE",
    "platform": "Web",
    "domain": ["Informational"],
    "complexity": ""
  },
  {
    "id": 20,
    "feature": "About Us - Homepage",
    "module": "About Us",
    "skill": "QA",
    "platform": "Web",
    "domain": ["Informational"],
    "complexity": ""
  },
  {
    "id": 21,
    "feature": "Employees - Search, Filter",
    "module": "Our People",
    "skill": "UX",
    "platform": "Web",
    "domain": ["Informational"],
    "complexity": "L"
  },
  {
    "id": 21,
    "feature": "Employees - Search, Filter",
    "module": "Our People",
    "skill": "VD",
    "platform": "Web",
    "domain": ["Informational"],
    "complexity": "L"
  },
  {
    "id": 21,
    "feature": "Employees - Search, Filter",
    "module": "Our People",
    "skill": "FE",
    "platform": "Web",
    "domain": ["Informational"],
    "complexity": ""
  },
  {
    "id": 21,
    "feature": "Employees - Search, Filter",
    "module": "Our People",
    "skill": "iOS",
    "platform": "Web",
    "domain": ["Informational"],
    "complexity": ""
  },
  {
    "id": 21,
    "feature": "Employees - Search, Filter",
    "module": "Our People",
    "skill": "Android",
    "platform": "Web",
    "domain": ["Informational"],
    "complexity": ""
  },
  {
    "id": 21,
    "feature": "Employees - Search, Filter",
    "module": "Our People",
    "skill": "BE",
    "platform": "Web",
    "domain": ["Informational"],
    "complexity": ""
  },
  {
    "id": 21,
    "feature": "Employees - Search, Filter",
    "module": "Our People",
    "skill": "QA",
    "platform": "Web",
    "domain": ["Informational"],
    "complexity": ""
  },
  {
    "id": 22,
    "feature": "Events - List, Details",
    "module": "Events",
    "skill": "UX",
    "platform": "Web",
    "domain": ["Informational"],
    "complexity": "L"
  },
  {
    "id": 22,
    "feature": "Events - List, Details",
    "module": "Events",
    "skill": "VD",
    "platform": "Web",
    "domain": ["Informational"],
    "complexity": "L"
  },
  {
    "id": 22,
    "feature": "Events - List, Details",
    "module": "Events",
    "skill": "FE",
    "platform": "Web",
    "domain": ["Informational"],
    "complexity": ""
  },
  {
    "id": 22,
    "feature": "Events - List, Details",
    "module": "Events",
    "skill": "iOS",
    "platform": "Web",
    "domain": ["Informational"],
    "complexity": ""
  },
  {
    "id": 22,
    "feature": "Events - List, Details",
    "module": "Events",
    "skill": "Android",
    "platform": "Web",
    "domain": ["Informational"],
    "complexity": ""
  },
  {
    "id": 22,
    "feature": "Events - List, Details",
    "module": "Events",
    "skill": "BE",
    "platform": "Web",
    "domain": ["Informational"],
    "complexity": ""
  },
  {
    "id": 22,
    "feature": "Events - List, Details",
    "module": "Events",
    "skill": "QA",
    "platform": "Web",
    "domain": ["Informational"],
    "complexity": ""
  }
]
